{
    "$schema": "http://json-schema.org/draft-07/schema",
    "$id": "https://crossref.org/item-graph/schemas/item.schema.json",
    "title": "Item schema",
    "description": "",
    "type": "object",
    "definitions": {
        "itemOrNull": {
            "oneOf": [
                {
                    "$ref": "item.schema.json",
                    "minProperties": 1,
                    "additionalProperties": false
                },
                {
                    "type": "null"
                }
            ]
        },
        "itemTypeOrEmptyObject": {
            "oneOf": [
                {
                    "$ref": "item-types.schema.json",
                    "minProperties": 1,
                    "additionalProperties": false
                },
                {
                    "type": "object",
                    "properties": {},
                    "additionalProperties": false
                }
            ]
        }
    },
    "properties": {
        "identifiers": {
            "type": "array",
            "items": {
                "type": "string"
            }
        },
        "relationships": {
            "type": "array",
            "items": {
                "type": "object",
                "properties": {
                    "relationship-type": {
                        "$ref": "relationships.schema.json"
                    },
                    "object": {
                        "$ref": "item.schema.json"
                    },
                    "asserted-by": {
                        "$ref": "#/definitions/itemOrNull"
                    },
                    "asserted-at": {
                        "$ref": "#/definitions/itemOrNull"
                    }
                },
                "required": [
                    "relationship-type",
                    "object"
                ],
                "additionalProperties": false
            }
        },
        "properties": {
            "type": "array",
            "minItems": 1,
            "items": {
                "type": "object",
                "properties": {
                    "values": {
                        "$ref": "#/definitions/itemTypeOrEmptyObject"
                    },
                    "assertedBy": {
                        "$ref": "#/definitions/itemOrNull"
                    },
                    "assertedAt": {
                        "$ref": "#/definitions/itemOrNull"
                    }
                },
                "required": [
                    "values"
                ],
                "additionalProperties": false
            }
        }
    },
    "required": [
        "identifiers",
        "relationships",
        "properties"
    ]
}