{
  "$schema": "http://json-schema.org/draft-07/schema",
  "$id": "https://crossref.org/item-graph/schemas/relationships.schema.json",
  "title": "Item Graph Relationships Schema",
  "description": "The set of relationship types that may occur in the Item Graph.",
  "type": "string",
  "oneOf": [
    {
      "const": "is_cited_by",
      "title": "Is Cited By"
    },
    {
      "const": "cites",
      "title": "Cites"
    },
    {
      "const": "is_supplement_to",
      "title": "Is supplement to"
    },
    {
      "const": "is_supplemented_by",
      "title": "Is supplemented by"
    },
    {
      "const": "is_continued_by",
      "title": "Is continued by"
    },
    {
      "const": "describes",
      "title": "Describes"
    },
    {
      "const": "is_described_by",
      "title": "Is described by"
    },
    {
      "const": "has_metadata",
      "title": "Has metadata"
    },
    {
      "const": "is_metadata_for",
      "title": "Is metadata for"
    },
    {
      "const": "has_version",
      "title": "has_version"
    },
    {
      "const": "is_version_of",
      "title": "is_version_of"
    },
    {
      "const": "is_new_version_of",
      "title": "is_new_version_of"
    },
    {
      "const": "is_previous_version_of",
      "title": "is_previous_version_of"
    },
    {
      "const": "is_part_of",
      "title": "is_part_of"
    },
    {
      "const": "has_part",
      "title": "has_part"
    },
    {
      "const": "is_referenced_by",
      "title": "is_referenced_by"
    },
    {
      "const": "is_documented_by",
      "title": "is_documented_by"
    },
    {
      "const": "is_compiled_by",
      "title": "is_compiled_by"
    },
    {
      "const": "is_variant_form_of",
      "title": "is_variant_form_of"
    },
    {
      "const": "is_original_form_of",
      "title": "is_original_form_of"
    },
    {
      "const": "is_identical_to",
      "title": "Is identical to"
    },
    {
      "const": "is_reviewed_by",
      "title": "Is reviewed by"
    },
    {
      "const": "is_derived_from",
      "title": "Is derived from"
    },
    {
      "const": "is_source_of",
      "title": "Is source of"
    },
    {
      "const": "is_required_by",
      "title": "Is required by"
    },
    {
      "const": "recommends",
      "title": "Recommends"
    },
    {
      "const": "discusses",
      "title": "Discusses"
    },
    {
      "const": "reviews",
      "title": "Reviews"
    },
    {
      "const": "annotates",
      "title": "Annotates"
    },
    {
      "const": "archived-with",
      "title": "Archived With"
    },
    {
      "const": "is-derived-from",
      "title": "Is Derived From"
    },
    {
      "const": "has-derivation",
      "title": "Has Derivation"
    },
    {
      "const": "is-review-of",
      "title": "Is review of"
    },
    {
      "const": "has-review",
      "title": "Has review"
    },
    {
      "const": "is-comment-on",
      "title": "Is comment on"
    },
    {
      "const": "has-comment",
      "title": "Has comment"
    },
    {
      "const": "is-reply-to",
      "title": "Is reply to"
    },
    {
      "const": "has-reply",
      "title": "Has reply"
    },
    {
      "const": "based-on-data",
      "title": "Based on data"
    },
    {
      "const": "is-data-basis-for",
      "title": "Is data basis for"
    },
    {
      "const": "has-related-material",
      "title": "Has related material"
    },
    {
      "const": "is-related-material",
      "title": "Is related material"
    },
    {
      "const": "is-compiled-by",
      "title": "Us compiled by"
    },
    {
      "const": "compiles",
      "title": "Compiles"
    },
    {
      "const": "is-documented-by",
      "title": "Is documented by"
    },
    {
      "const": "documents",
      "title": "Documents"
    },
    {
      "const": "is-supplement-to",
      "title": "Is supplement to"
    },
    {
      "const": "is-supplemented-by",
      "title": "Is supplemented-by"
    },
    {
      "const": "is-continued-by",
      "title": "Is continued by"
    },
    {
      "const": "continues",
      "title": "Continues"
    },
    {
      "const": "is-part-of",
      "title": "Is part of"
    },
    {
      "const": "has-part",
      "title": "Has part"
    },
    {
      "const": "references",
      "title": "References"
    },
    {
      "const": "is-referenced-by",
      "title": "Is referenced by"
    },
    {
      "const": "is-based-on",
      "title": "Is based on"
    },
    {
      "const": "is-basis-for",
      "title": "Is basis for"
    },
    {
      "const": "requires",
      "title": "Requires"
    },
    {
      "const": "is-required-by",
      "title": "Is required by"
    },
    {
      "const": "citation",
      "title": "Citation"
    },
    {
      "const": "author",
      "title": "Author"
    },
    {
      "const": "chair",
      "title": "Chair"
    },
    {
      "const": "translator",
      "title": "Translator"
    },
    {
      "const": "editor",
      "title": "Editor"
    },
    {
      "const": "contributor",
      "title": "Contributor"
    },
    {
      "const": "title",
      "title": "Title"
    },
    {
      "const": "resource-fulltext",
      "title": "Full text resource for this Item"
    },
    {
      "const": "resource-resolution",
      "title": "Resolution landing page for this Item"
    },
    {
      "const": "affiliation",
      "title": "Affiliation"
    },
    {
      "const": "publisher",
      "title": "Publisher"
    },
    {
      "const": "component",
      "title": "Component"
    },
    {
      "const": "grant",
      "title": "Grant"
    },
    {
      "const": "funder",
      "title": "Funder"
    },
    {
      "const": "institution",
      "title": "Institution"
    },
    {
      "const": "license",
      "title": "License"
    },
    {
      "const": "maintainer",
      "title": "Is maintained by"
    },
    {
      "const": "steward",
      "title": "Is stewarded by"
    },
    {
      "const": "is-registration-agency-of",
      "title": "Is registration agency of"
    },
    {
      "const": "child",
      "title": "Child item (correspond to SKOS' narrower)"
    },
    {
      "const": "parent",
      "title": "Parent item (correspond to SKOS' broader)"
    },
    {
      "const": "related",
      "title": "has related item"
    },
    {
      "const": "web-resource",
      "title": "TODO"
    },
    {
      "const": "number",
      "title": "TODO"
    },
    {
      "const": "clinical-trial-number",
      "title": "TODO"
    },
    {
      "const": "relation",
      "title": "TODO"
    },
    {
      "const": "updates",
      "title": "TODO"
    },
    {
      "const": "awarded",
      "title": "TODO"
    },
    {
      "const": "updated",
      "title": "TODO"
    },
    {
      "const": "member-of",
      "title": "TODO"
    },
    {
      "const": "registration-agency",
      "title": "has registration agency"
    },
    {
      "const": "other",
      "title": "has relationship with item"
    },
    {
      "const": "object",
      "title": "The relationship between a reified item and its target"
    },
    {
      "const": "ancestor",
      "title": "Parent item in hierarchy [DRAFT]"
    },
    {
      "const": "has-preprint",
      "title": "the work has this preprint"
    },
    {
      "const": "source",
      "title": "Used to indicate the relationship of a reference to a (web) source"
    },
    {
      "const": "collection",
      "title": "Item is a member of the given Collection (an arbitrary grouping of Items)."
    },
    {
      "const": "funding-source",
      "title": "Source of funding."
    },
    {
      "const": "has-manifestation",
      "title": "Has the given manifestation."
    },
    {
      "const": "container",
      "title": "The metadata container for this Item."
    },
    {
      "const": "prefix",
      "title": "The Crossref owner prefix for this Item (not the DOI prefix)."
    },
    {
      "const": "sponsor",
      "title": "Sponsor"
    },
    {
      "const": "same-as",
      "title": "Item is the same as another represented by a different identifier."
    },
    {
      "const": "has-translation",
      "title": "Has translation"
    },
    {
      "const": "is-preprint-of",
      "title": "Is preprint of"
    },
    {
      "const": "is-translation-of",
      "title": "Is translation of"
    },
    {
      "const": "is-same-as",
      "title": "Is same as"
    },
    {
      "const": "has-version",
      "title": "Has version"
    },
    {
      "const": "is-version-of",
      "title": "Is version of"
    },
    {
      "const": "is-identical-to",
      "title": "Is identical to"
    },
    {
      "const": "is-replaced-by",
      "title": "Is replaced by"
    },
    {
      "const": "replaces",
      "title": "Replaces"
    },
    {
      "const": "isbn",
      "title": "ISBN"
    },
    {
      "const": "issn",
      "title": "ISSN"
    },
    {
      "const": "update-policy",
      "title": "Update Policy"
    },
    {
      "const": "assertion",
      "title": "Assertion"
    }
  ]
}
